<?xml version="1.0" encoding="utf-8"?>
<!-- Generator: Adobe Illustrator 21.0.2, SVG Export Plug-In . SVG Version: 6.00 Build 0)  -->
<svg version="1.1" id="Layer_1" xmlns="http://www.w3.org/2000/svg" xmlns:xlink="http://www.w3.org/1999/xlink" x="0px" y="0px"
	 viewBox="0 0 1440 200.1" style="enable-background:new 0 0 1440 200.1;" xml:space="preserve">
<style type="text/css">
	.st0{fill:#F5FAF9;}
	.st1{fill:#F3FAF8;}
	.st2{fill:#148F4F;}
	.st3{fill:#A7E629;}
	.st4{fill:#3EC242;}
	.st5{fill:#FFFFFF;}
	.st6{fill:#3D4454;}
	.st7{fill:none;stroke:#FFFFFF;stroke-width:1.3;stroke-miterlimit:10;}
	.st8{opacity:0.6;}
	.st9{fill:#F58B00;}
	.st10{fill:#FFB300;}
	.st11{fill:none;stroke:#F58B00;stroke-miterlimit:10;}
	.st12{fill:none;stroke:#FFB300;stroke-width:7;stroke-miterlimit:10;}
	.st13{fill:none;stroke:#FFFFFF;stroke-width:7;stroke-miterlimit:10;}
	.st14{fill:none;stroke:#A7E629;stroke-width:7;stroke-miterlimit:10;}
	.st15{fill:none;stroke:#148F4F;stroke-width:7;stroke-miterlimit:10;}
	.st16{opacity:0.1;fill:#75F2A1;}
	.st17{opacity:0.5;}
	.st18{fill:#F0FAF7;}
	.st19{fill:none;stroke:#3EC242;stroke-width:7;stroke-miterlimit:10;}
	.st20{fill:none;stroke:#FFFFFF;stroke-miterlimit:10;}
	.st21{opacity:3.000000e-02;fill:#3D4454;}
	.st22{fill:#BEC3CC;}
	.st23{fill:#FFCC26;}
	.st24{opacity:0.7;fill:#FFFFFF;}
	.st25{fill:#7EDE35;}
	.st26{fill:#9AE825;}
	.st27{fill:none;stroke:#7EDE35;stroke-width:7;stroke-miterlimit:10;}
	.st28{fill:#89E328;}
	.st29{fill:none;stroke:#89E328;stroke-width:7;stroke-miterlimit:10;}
	.st30{fill:#7C7F87;}
	.st31{fill:none;stroke:#FFFFFF;stroke-width:4;stroke-miterlimit:10;}
	.st32{fill:#C22700;}
	.st33{fill:#FF640A;}
	.st34{fill:none;stroke:#FF640A;stroke-width:7;stroke-miterlimit:10;}
	.st35{fill:#C40048;}
	.st36{fill:#FF0066;}
	.st37{fill:none;stroke:#FF0066;stroke-width:7;stroke-miterlimit:10;}
	.st38{fill:#CF0700;}
	.st39{fill:#FF5500;}
	.st40{fill:none;stroke:#FF5500;stroke-width:7;stroke-miterlimit:10;}
	.st41{fill:#0F74B5;}
	.st42{opacity:0.2;fill:#041D2D;enable-background:new    ;}
	.st43{fill:#F7F9FA;}
	.st44{fill:#DB4109;}
	.st45{fill:#242933;}
	.st46{fill:#525A68;}
	.st47{fill:#6E7687;}
	.st48{fill:#8D95A0;}
	.st49{fill:#AEB8C4;}
	.st50{fill:#D9E1E8;}
	.st51{fill:#E9EFF4;}
</style>
<polygon class="st43" points="0,200.1 1440,200.1 1440,0 0,198.1 "/>
</svg>
